{
	"info": {
		"_postman_id": "489c8411-f204-42a3-83f8-b7843e959a8d",
		"name": "rest",
		"schema": "https://schema.getpostman.com/json/collection/v2.1.0/collection.json",
		"_exporter_id": "29411793"
	},
	"item": [
		{
			"name": "get",
			"event": [
				{
					"listen": "test",
					"script": {
						"exec": [
							"pm.test(\"Status code is 200\", function () {\r",
							"    pm.response.to.have.status(200);\r",
							"});\r",
							"var responseBody = pm.response.json();\r",
							"var dataArray=responseBody.data;\r",
							"var count=Object.keys(dataArray).length;\r",
							"console.log(count);\r",
							"const id=[1,2,3,4,5,6]\r",
							"const finame=[\"Michael\",\"Lindsay\",\"Tobias\",\"Byron\",\"George\",\"Rachel\"]\r",
							"const firname=responseBody.data;\r",
							"console.log(responseBody);\r",
							"console.log(firname);\r",
							""
						],
						"type": "text/javascript"
					}
				}
			],
			"request": {
				"method": "GET",
				"header": [],
				"url": {
					"raw": "{{GET_URL}}",
					"host": [
						"{{GET_URL}}"
					]
				}
			},
			"response": []
		},
		{
			"name": "post",
			"event": [
				{
					"listen": "test",
					"script": {
						"exec": [
							"pm.variables.get(\"variable_key\");\r",
							"pm.test(\"PROVIDE ME CORRECT STATUS CODE\", function () {\r",
							"    pm.response.to.have.status(201);\r",
							"});\r",
							"//----- EXTRAACT RESPONSE BODY FOR EACH VALUE-----\r",
							"var actualDate= new Date().toISOString().slice(0,11);\r",
							"var requestBody=pm.request.body.raw;\r",
							"requestBody=JSON.parse(requestBody);\r",
							"var req_name=requestBody.name;\r",
							"var req_job=requestBody.job;\r",
							"var responseBody = pm.response.json();\r",
							"var res_job=responseBody.job;\r",
							"var res_id=responseBody.id;\r",
							"var res_date=responseBody.createdAt;\r",
							"var responseBody=pm.response.json();\r",
							"res_date=res_date.slice(0,11);\r",
							"console.log(res_date);\r",
							"/*pm.test(\"generated id\",function(){\r",
							"    pm.expect(res_job).to.contain(\"TESTER\")\r",
							"})*/\r",
							"pm.test (\"validate responseBodyid\",function() {\r",
							"    pm.expect(res_id).to.not.null;\r",
							"    pm.expect(res_id).to.not.eql(0);\r",
							"    })\r",
							"// ------declaring expected results----------\r",
							"pm.test(\"generated date\",function(){\r",
							"    pm.expect(res_date).to.eql(actualDate)\r",
							"})\r",
							"\r",
							""
						],
						"type": "text/javascript"
					}
				},
				{
					"listen": "prerequest",
					"script": {
						"exec": [
							"var name = pm.variables.replaceIn('{{$randomFirstName}}');\r",
							"pm.collectionVariables.set(\"col_name\",name);\r",
							"var job = pm.variables.replaceIn('{{$randomJobType}}');\r",
							"pm.collectionVariables.set(\"col_job\",job);"
						],
						"type": "text/javascript"
					}
				}
			],
			"request": {
				"method": "POST",
				"header": [],
				"body": {
					"mode": "raw",
					"raw": "{\r\n    \"name\": \"{{col_name}}\",\r\n    \"job\": \"{{col_job}}\"\r\n}",
					"options": {
						"raw": {
							"language": "json"
						}
					}
				},
				"url": {
					"raw": "{{POST_URL}}",
					"host": [
						"{{POST_URL}}"
					]
				}
			},
			"response": []
		},
		{
			"name": "put",
			"event": [
				{
					"listen": "test",
					"script": {
						"exec": [
							"pm.test(\"Status code is 200\", function () {\r",
							"    pm.response.to.have.status(200);\r",
							"});\r",
							""
						],
						"type": "text/javascript"
					}
				}
			],
			"request": {
				"method": "PUT",
				"header": [],
				"body": {
					"mode": "raw",
					"raw": "{\r\n    \"name\": \"morpheus\",\r\n    \"job\": \"zion resident\"\r\n}",
					"options": {
						"raw": {
							"language": "json"
						}
					}
				},
				"url": {
					"raw": "{{PUT_URL}}",
					"host": [
						"{{PUT_URL}}"
					]
				}
			},
			"response": []
		},
		{
			"name": "patch",
			"request": {
				"method": "PATCH",
				"header": [],
				"body": {
					"mode": "raw",
					"raw": "{\r\n    \"name\": \"ABC\",\r\n    \"job\": \"zion resident\"\r\n}",
					"options": {
						"raw": {
							"language": "json"
						}
					}
				},
				"url": {
					"raw": "https://reqres.in/api/users/2",
					"protocol": "https",
					"host": [
						"reqres",
						"in"
					],
					"path": [
						"api",
						"users",
						"2"
					]
				}
			},
			"response": []
		},
		{
			"name": "DELETE",
			"request": {
				"method": "DELETE",
				"header": [],
				"url": {
					"raw": "https://reqres.in/api/users/2",
					"protocol": "https",
					"host": [
						"reqres",
						"in"
					],
					"path": [
						"api",
						"users",
						"2"
					]
				}
			},
			"response": []
		}
	],
	"variable": [
		{
			"key": "coll_name,name",
			"value": ""
		},
		{
			"key": "coo_job,job",
			"value": ""
		},
		{
			"key": "collection_name,name",
			"value": ""
		},
		{
			"key": "collection_job,job",
			"value": ""
		},
		{
			"key": "Collection_Name,name",
			"value": ""
		},
		{
			"key": "Collection_Job,job",
			"value": ""
		},
		{
			"key": "Collection_Name",
			"value": ""
		},
		{
			"key": "colle_Name",
			"value": ""
		},
		{
			"key": "Collection_Job",
			"value": ""
		},
		{
			"key": "cool_name",
			"value": ""
		},
		{
			"key": "cool_job",
			"value": ""
		},
		{
			"key": "col_name",
			"value": ""
		},
		{
			"key": "col_job",
			"value": ""
		}
	]
}