{
	"info": {
		"_postman_id": "5b343cd0-d2f8-49cd-9fe0-0ff4cd1c65ad",
		"name": "status code",
		"schema": "https://schema.getpostman.com/json/collection/v2.1.0/collection.json",
		"_exporter_id": "29411793"
	},
	"item": [
		{
			"name": "get",
			"event": [
				{
					"listen": "test",
					"script": {
						"exec": [
							"pm.test(\"Status code is 200\", function () {\r",
							"    pm.response.to.have.status(400);\r",
							"});\r",
							""
						],
						"type": "text/javascript"
					}
				}
			],
			"request": {
				"method": "GET",
				"header": [],
				"url": {
					"raw": "https://httpbin.org/status/undefined",
					"protocol": "https",
					"host": [
						"httpbin",
						"org"
					],
					"path": [
						"status",
						"undefined"
					]
				}
			},
			"response": []
		},
		{
			"name": "https://httpbin.org/status/undefined",
			"event": [
				{
					"listen": "test",
					"script": {
						"exec": [
							"pm.test(\"Status code is 200\", function () {\r",
							"    pm.response.to.have.status(400);\r",
							"});"
						],
						"type": "text/javascript"
					}
				}
			],
			"request": {
				"method": "POST",
				"header": [],
				"body": {
					"mode": "raw",
					"raw": "{\r\n    \"name\":\"ABC\",\r\n    \"designation\":\"QA\",\r\n    \"ID\":1\r\n}",
					"options": {
						"raw": {
							"language": "json"
						}
					}
				},
				"url": {
					"raw": "https://httpbin.org/status/undefined",
					"protocol": "https",
					"host": [
						"httpbin",
						"org"
					],
					"path": [
						"status",
						"undefined"
					]
				}
			},
			"response": []
		},
		{
			"name": "https://httpbin.org/base64/SFRUUEJJTiBpcyBhd2Vzb21l",
			"event": [
				{
					"listen": "test",
					"script": {
						"exec": [
							"pm.test(\"Status code is 200\", function () {\r",
							"    pm.response.to.have.status(200);\r",
							"});"
						],
						"type": "text/javascript"
					}
				}
			],
			"request": {
				"method": "GET",
				"header": [],
				"url": {
					"raw": "https://httpbin.org/base64/SFRUUEJJTiBpcyBhd2Vzb21l",
					"protocol": "https",
					"host": [
						"httpbin",
						"org"
					],
					"path": [
						"base64",
						"SFRUUEJJTiBpcyBhd2Vzb21l"
					]
				}
			},
			"response": []
		}
	]
}