{
	"id": "6402fe63-05fd-4ca4-a03a-0c5129024319",
	"name": "REQRES",
	"values": [
		{
			"key": "POST_URL",
			"value": "{{BASE_URL}}/api/users",
			"type": "default",
			"enabled": true
		},
		{
			"key": "BASE_URL",
			"value": " https://reqres.in",
			"type": "default",
			"enabled": true
		},
		{
			"key": "PUT_URL",
			"value": "{{BASE_URL}}/api/users/2",
			"type": "default",
			"enabled": true
		},
		{
			"key": "PATCH_URL",
			"value": "{{BASE_URL}}/api/users/2",
			"type": "default",
			"enabled": true
		},
		{
			"key": "GET_URL",
			"value": "{{BASE_URL}}/api/users?page=2",
			"type": "default",
			"enabled": true
		}
	],
	"_postman_variable_scope": "environment",
	"_postman_exported_at": "2023-10-29T19:19:46.435Z",
	"_postman_exported_using": "Postman/10.19.6"
}